ov5640_mnist/.Xil/Vivado-41276-LAPTOP-401N1U78/hw_ila_data_1/zip_work/waveform.vcd
$date
        2024-Jan-01 23:33:32
$end
$version
        Vivado v2019.1 (64-bit)
$end
$timescale
        1ps
$end
$scope module dut $end
$var reg 8 " u_ila_0_cmos_d_o [7:0] $end
$var reg 16 * system_i/red_block_mnist_0/inst/red_block_inst/cmos_d_o [23:8] $end
$var reg 16 : system_i/red_block_mnist_0/inst/red_block_inst/h_cnt [15:0] $end
$var reg 16 J system_i/red_block_mnist_0/inst/red_block_inst/v_cnt [15:0] $end
$var reg 6 Z system_i/red_block_mnist_0/inst/red_block_inst/f_cnt [5:0] $end
$var reg 4 ` system_i/mnist_0/inst/mnist_process/number_o [3:0] $end
$var reg 8 d system_i/mnist_0/inst/mnist_process/mnist_data [7:0] $end
$var reg 4 l system_i/mnist_0/inst/mnist_process/load_state [3:0] $end
$var reg 1 p system_i/red_block_mnist_0/inst/red_block_inst/cmos_href_o $end
$var reg 1 q system_i/red_block_mnist_0/inst/red_block_inst/cmos_vsync_o $end
$var reg 1 r system_i/mnist_0/inst/mnist_process/mnist_data_valid $end
$var reg 1 s u_ila_0_mnist_en $end
$var reg 1 t u_ila_0_mnist_start $end
$var reg 1 u system_i/mnist_0/inst/mnist_process/number_val $end
$var reg 1 v _TRIGGER $end
$var reg 1 w _WINDOW $end
$var reg 1 x _GAP $end
$upscope $end
$enddefinitions $end
#0
$dumpvars
b1011110 "
b100100001010111 *
b11110 :
b1001001101 J
b111001 Z
b101 `
b0 d
b1 l
1p
0q
0r
0s
0t
0u
0v
1w
0x
$end
#1
0p
#2
b1010110 "
b100000101001111 *
b11111 :
1p
#3
0p
#5
b1011000 "
b100010001010010 *
b100000 :
1p
#6
0p
#7
b1011110 "
b100101001011000 *
b100001 :
1p
#8
0p
#9
b1100011 "
b100111101011011 *
b100010 :
1p
#10
0p
#12
b100111101011010 *
b100011 :
1p
#13
0p
#14
b1100000 "
b100111001010111 *
b100100 :
1p
#15
0p
#17
b1011101 "
b100110101010111 *
b100101 :
1p
#18
0p
#19
b1011010 "
b100110 :
1p
#20
0p
#21
b1011000 "
b100111 :
1p
#22
0p
#24
b100111001011011 *
b101000 :
1p
#25
0p
#26
b1010110 "
b100110101011111 *
b101001 :
1p
#27
0p
#28
b1001111 "
b100011101011000 *
b101010 :
1p
#29
0p
#31
b1010101 "
b100111001011110 *
b101011 :
1p
#32
0p
#33
b100111101011100 *
b101100 :
1p
#34
0p
#36
b1001010 "
b100010001001111 *
b101101 :
1p
#37
0p
#38
b1001101 "
b100011001010000 *
b101110 :
1p
#39
0p
#40
b1010010 "
b100101001010101 *
b101111 :
1p
#41
0p
#43
b1010100 "
b100101001011000 *
b110000 :
1p
#44
0p
#45
b1010101 "
b100110001011001 *
b110001 :
1p
#46
0p
#47
b1010111 "
b100111001011001 *
b110010 :
1p
#48
0p
#50
b1010110 "
b100111101010111 *
b110011 :
1p
#51
0p
#52
b1001100 "
b100010101001101 *
b110100 :
1p
#53
0p
#55
b111111 "
b11011000111001 *
b110101 :
1p
#56
0p
#57
b11010000111001 *
b110110 :
1p
#58
0p
#59
b1000100 "
b11100000111111 *
b110111 :
1p
#60
0p
#62
b1001011 "
b100001001001000 *
b111000 :
1p
#63
0p
#64
b1001110 "
b100100101001100 *
b111001 :
1p
#65
0p
#66
b1000110 "
b100000101000010 *
b111010 :
1p
#67
0p
#69
b1001001 "
b100001101000010 *
b111011 :
1p
#70
0p
#71
b1001010 "
b100010001000010 *
b111100 :
1p
#72
0p
#74
b1001100 "
b100001000111111 *
b111101 :
1p
#75
0p
#76
b1001000 "
b11111000111111 *
b111110 :
1p
#77
0p
#78
b11110101000010 *
b111111 :
1p
#79
0p
#81
b111110 "
b11000100111110 *
b1000000 :
1p
#82
0p
#83
b111100 "
b11000000111100 *
b1000001 :
1p
#84
0p
#86
b110110 "
b10101000110110 *
b1000010 :
1p
#87
0p
#88
b111011 "
b10111100111100 *
b1000011 :
1p
#89
0p
#90
b111000 "
b11000000111010 *
b1000100 :
1p
#91
0p
#93
b101110 "
b10100100110001 *
b1000101 :
1p
#94
0p
#95
b101101 "
b10101000110001 *
b1000110 :
1p
#96
0p
#97
b110101 "
b11010000111001 *
b1000111 :
1p
#98
0p
#100
b111001 "
b11100000111110 *
b1001000 :
1p
#101
0p
#102
b110100 "
b11000100110111 *
b1001001 :
1p
#103
0p
#105
b10111100110101 *
b1001010 :
1p
#106
0p
#107
b101110 "
b10100000101110 *
b1001011 :
1p
#108
0p
#109
b10011100101110 *
b1001100 :
1p
#110
0p
#112
b101100 "
b10001100101100 *
b1001101 :
1p
#113
0p
#114
b101011 "
b10001000101100 *
b1001110 :
1p
#115
0p
#116
b101110 "
b10001100101111 *
b1001111 :
1p
#117
0p
#119
b101111 "
b10000100101110 *
b1010000 :
1p
#120
0p
#121
b101001 "
b1101100101100 *
b1010001 :
1p
#122
0p
#124
b100001 "
b1010100100001 *
b1010010 :
1p
#125
0p
#126
b100110 "
b1101100100100 *
b1010011 :
1p
#127
0p
#128
b1101100100011 *
b1010100 :
1p
#129
0p
#131
b11110 "
b1011000011010 *
b1010101 :
1p
#132
0p
#133
b100010 "
b1101100100000 *
b1010110 :
1p
#134
0p
#136
b11111 "
b1100100011111 *
b1010111 :
1p
#137
0p
#138
b1011000 :
1p
#139
0p
#140
b100110 "
b1110100100100 *
b1011001 :
1p
#141
0p
#143
b101011 "
b1101000100110 *
b1011010 :
1p
#144
0p
#145
b11111 "
b111000011000 *
b1011011 :
1p
#146
0p
#147
b100101 "
b1010100011111 *
b1011100 :
1p
#148
0p
#150
b11000 "
b100000010011 *
b1011101 :
1p
#151
0p
#152
b110000010111 *
b1011110 :
1p
#153
0p
#155
b11010 "
b1000100011011 *
b1011111 :
1p
#156
0p
#157
b1001000011100 *
b1100000 :
1p
#158
0p
#159
b11011 "
b1010000011101 *
b1100001 :
1p
#160
0p
#162
b11100 "
b1011000011101 *
b1100010 :
1p
#163
0p
#164
b11011 "
b1011000011100 *
b1100011 :
1p
#165
0p
#166
b11001 "
b1001100011001 *
b1100100 :
1p
#167
0p
#169
b1000100011000 *
b1100101 :
1p
#170
0p
#171
b11000 "
b1000000010111 *
b1100110 :
1p
#172
0p
#174
b1000000010110 *
b1100111 :
1p
#175
0p
#176
b10100 "
b101100010011 *
b1101000 :
1p
#177
0p
#178
b10010 "
b101100001111 *
b1101001 :
1p
#179
0p
#181
b10100 "
b110000010000 *
b1101010 :
1p
#182
0p
#183
b10000 "
b11100001100 *
b1101011 :
1p
#184
0p
#186
b10011 "
b101000010001 *
b1101100 :
1p
#187
0p
#188
b11011 "
b1001000010111 *
b1101101 :
1p
#189
0p
#190
b11100 "
b1001100011000 *
b1101110 :
1p
#191
0p
#193
b11000 "
b111100010100 *
b1101111 :
1p
#194
0p
#195
b11011 "
b1001000010111 *
b1110000 :
1p
#196
0p
#197
b11100 "
b1010100011000 *
b1110001 :
1p
#198
0p
#200
b10100 "
b110100010001 *
b1110010 :
1p
#201
0p
#202
b10101 "
b111000010011 *
b1110011 :
1p
#203
0p
#205
b10111 "
b1001000010110 *
b1110100 :
1p
#206
0p
#207
b10000 "
b110000001101 *
b1110101 :
1p
#208
0p
#209
b10010 "
b1000000010001 *
b1110110 :
1p
#210
0p
#212
b11000 "
b1100100010111 *
b1110111 :
1p
#213
0p
#214
b10111 "
b1100000011000 *
b1111000 :
1p
#215
0p
#216
b10110 "
b1011000011010 *
b1111001 :
1p
#217
0p
#219
b10011 "
b1001100010110 *
b1111010 :
1p
#220
0p
#221
b10110 "
b1011000011001 *
b1111011 :
1p
#222
0p
#224
b10100 "
b1010000010101 *
b1111100 :
1p
#225
0p
#226
b10001 "
b1000100010010 *
b1111101 :
1p
#227
0p
#228
b10011 "
b1001000010101 *
b1111110 :
1p
#229
0p
#231
b10110 "
b1001100011001 *
b1111111 :
1p
#232
0p
#233
b1010 "
b11100001110 *
b10000000 :
1p
#234
0p
#235
b1101 "
b101000010011 *
b10000001 :
1p
#236
0p
#238
b1111 "
b101100010011 *
b10000010 :
1p
#239
0p
#240
b10001 "
b110000010100 *
b10000011 :
1p
#241
0p
#243
b10101 "
b111100011001 *
b10000100 :
1p
#244
0p
#245
b11000 "
b1000100011100 *
b10000101 :
1p
#246
0p
#247
b10001 "
b101100010111 *
b10000110 :
1p
#248
0p
#250
b10100 "
b111000011100 *
b10000111 :
1p
#251
0p
#252
b10111 "
b1001000011111 *
b10001000 :
1p
#253
0p
#255
b11000 "
b1001100100000 *
b10001001 :
1p
#256
0p
#257
b10100 "
b110100011000 *
b10001010 :
1p
#258
0p
#259
b10010 "
b101000010111 *
b10001011 :
1p
#260
0p
#262
b11001 "
b1000000011100 *
b10001100 :
1p
#263
0p
#264
b11011 "
b1010000011011 *
b10001101 :
1p
#265
0p
#266
b11001 "
b1010100011001 *
b10001110 :
1p
#267
0p
#269
b10110 "
b1010000010111 *
b10001111 :
1p
#270
0p
#271
b10010 "
b1000100010011 *
b10010000 :
1p
#272
0p
#274
b10011 "
b1001000010101 *
b10010001 :
1p
#275
0p
#276
b11011 "
b1101000011101 *
b10010010 :
1p
#277
0p
#278
b11110 "
b1110100011111 *
b10010011 :
1p
#279
0p
#281
b11000 "
b1000000011000 *
b10010100 :
1p
#282
0p
#283
b10110 "
b110100010101 *
b10010101 :
1p
#284
0p
#286
b10000 "
b11100001110 *
b10010110 :
1p
#287
0p
#288
b1111 "
b11100001101 *
b10010111 :
1p
#289
0p
#290
b10001 "
b101100001111 *
b10011000 :
1p
#291
0p
#293
b10100 "
b1000000010010 *
b10011001 :
1p
#294
0p
#295
b1101 "
b110000001100 *
b10011010 :
1p
#296
0p
#297
b1010 "
b101000001001 *
b10011011 :
1p
#298
0p
#300
b10000 "
b111100001110 *
b10011100 :
1p
#301
0p
#302
b10011 "
b1000100010010 *
b10011101 :
1p
#303
0p
#305
b10110 "
b1001100010110 *
b10011110 :
1p
#306
0p
#307
b10111 "
b1010000010111 *
b10011111 :
1p
#308
0p
#309
b10001 "
b111100010010 *
b10100000 :
1p
#310
0p
#312
b10010 "
b1000000010100 *
b10100001 :
1p
#313
0p
#314
b10001 "
b111100010010 *
b10100010 :
1p
#315
0p
#316
b1110 "
b110000010000 *
b10100011 :
1p
#317
0p
#319
b10100100 :
1p
#320
0p
#321
b1101 "
b101000001111 *
b10100101 :
1p
#322
0p
#324
b10001 "
b110100010011 *
b10100110 :
1p
#325
0p
#326
b10111 "
b1001100011010 *
b10100111 :
1p
#327
0p
#328
b10000 "
b101100010011 *
b10101000 :
1p
#329
0p
#331
b1110 "
b100100010001 *
b10101001 :
1p
#332
0p
#333
b1000 "
b1100001011 *
b10101010 :
1p
#334
0p
#336
b1011 "
b100000010000 *
b10101011 :
1p
#337
0p
#338
b10000 "
b111100010101 *
b10101100 :
1p
#339
0p
#340
b1000000010101 *
b10101101 :
1p
#341
0p
#343
b10101 "
b1010100011001 *
b10101110 :
1p
#344
0p
#345
b10001 "
b1000000010100 *
b10101111 :
1p
#346
0p
#347
b1110 "
b110100001111 *
b10110000 :
1p
#348
0p
#350
b110100001110 *
b10110001 :
1p
#351
0p
#352
b111000001110 *
b10110010 :
1p
#353
0p
#355
b10011 "
b1001000010010 *
b10110011 :
1p
#356
0p
#357
b1101 "
b110100001101 *
b10110100 :
1p
#358
0p
#359
b1000 "
b100000001000 *
b10110101 :
1p
#360
0p
#362
b1010 "
b101100001011 *
b10110110 :
1p
#363
0p
#364
b1110 "
b111100001111 *
b10110111 :
1p
#365
0p
#366
b1100 "
b110000001101 *
b10111000 :
1p
#367
0p
#369
b10111001 :
1p
#370
0p
#371
b111 "
b11100001000 *
b10111010 :
1p
#372
0p
#374
b110 "
b11100000111 *
b10111011 :
1p
#375
0p
#376
b111 "
b100000000111 *
b10111100 :
1p
#377
0p
#378
b1000 "
b100100001000 *
b10111101 :
1p
#379
0p
#381
b1011 "
b110000001011 *
b10111110 :
1p
#382
0p
#383
b111 "
b100000000111 *
b10111111 :
1p
#384
0p
#386
b1000 "
b100100001001 *
b11000000 :
1p
#387
0p
#388
b1100 "
b110100001111 *
b11000001 :
1p
#389
0p
#390
b1010 "
b101000001101 *
b11000010 :
1p
#391
0p
#393
b11000011 :
1p
#394
0p
#395
b1100 "
b110000001111 *
b11000100 :
1p
#396
0p
#397
b1101 "
b110100010000 *
b11000101 :
1p
#398
0p
#400
b110 "
b11000000111 *
b11000110 :
1p
#401
0p
#402
b1000 "
b11000001000 *
b11000111 :
1p
#403
0p
#405
b1011 "
b100100001001 *
b11001000 :
1p
#406
0p
#407
b1010 "
b100000000101 *
b11001001 :
1p
#408
0p
#409
b10001 "
b1000100001110 *
b11001010 :
1p
#410
0p
#412
b1010 "
b101100001000 *
b11001011 :
1p
#413
0p
#414
b101100001010 *
b11001100 :
1p
#415
0p
#417
b1101 "
b111000001110 *
b11001101 :
1p
#418
0p
#419
b1000 "
b11100001000 *
b11001110 :
1p
#420
0p
#421
b111 "
b11000000111 *
b11001111 :
1p
#422
0p
#424
b1000 "
b11100001000 *
b11010000 :
1p
#425
0p
#426
b111 "
b11000000110 *
b11010001 :
1p
#427
0p
#428
b11000000101 *
b11010010 :
1p
#429
0p
#431
b1101 "
b110100001010 *
b11010011 :
1p
#432
0p
#433
b1110 "
b110100001100 *
b11010100 :
1p
#434
0p
#436
b1010 "
b100000001000 *
b11010101 :
1p
#437
0p
#438
b1001 "
b11100000111 *
b11010110 :
1p
#439
0p
#440
b1010 "
b100000001000 *
b11010111 :
1p
#441
0p
#443
b10000 "
b111000001111 *
b11011000 :
1p
#444
0p
#445
b111 "
b11100000101 *
b11011001 :
1p
#446
0p
#447
b11011010 :
1p
#448
0p
#450
b1000 "
b100000000110 *
b11011011 :
1p
#451
0p
#452
b1001 "
b100100000111 *
b11011100 :
1p
#453
0p
#455
b1000 "
b100000000110 *
b11011101 :
1p
#456
0p
#457
b11100000110 *
b11011110 :
1p
#458
0p
#459
b11000000111 *
b11011111 :
1p
#460
0p
#462
b1010 "
b11100001001 *
b11100000 :
1p
#463
0p
#464
b1100 "
b100000001010 *
b11100001 :
1p
#465
0p
#466
b1111 "
b101100001110 *
b11100010 :
1p
#467
0p
#469
b1100 "
b100000001011 *
b11100011 :
1p
#470
0p
#471
b1001 "
b11000001001 *
b11100100 :
1p
#472
0p
#474
b1010 "
b100000001010 *
b11100101 :
1p
#475
0p
#476
b1100 "
b101100001100 *
b11100110 :
1p
#477
0p
#478
b100 "
b1100000100 *
b11100111 :
1p
#479
0p
#481
b111 "
b100000001000 *
b11101000 :
1p
#482
0p
#483
b1010 "
b110000001100 *
b11101001 :
1p
#484
0p
#486
b1001 "
b101000001011 *
b11101010 :
1p
#487
0p
#488
b100 "
b10000000111 *
b11101011 :
1p
#489
0p
#490
b110 "
b11000001000 *
b11101100 :
1p
#491
0p
#493
b11000000111 *
b11101101 :
1p
#494
0p
#495
b100 "
b10000000011 *
b11101110 :
1p
#496
0p
#497
b1000 "
b100000000101 *
b11101111 :
1p
#498
0p
#500
b1011 "
b101000000111 *
b11110000 :
1p
#501
0p
#502
b1111 "
b111000001100 *
b11110001 :
1p
#503
0p
#505
b1010 "
b101000001000 *
b11110010 :
1p
#506
0p
#507
b1101 "
b110100001011 *
b11110011 :
1p
#508
0p
#509
b110100001010 *
b11110100 :
1p
#510
0p
#512
b1111 "
b111100001100 *
b11110101 :
1p
#513
0p
#514
b10001 "
b1000100001101 *
b11110110 :
1p
#515
0p
#516
b1111 "
b111100001010 *
b11110111 :
1p
#517
0p
#519
b1011 "
b101100001000 *
b11111000 :
1p
#520
0p
#521
b1010 "
b101000001001 *
b11111001 :
1p
#522
0p
#524
b100100001001 *
b11111010 :
1p
#525
0p
#526
b1100 "
b101000001011 *
b11111011 :
1p
#527
0p
#528
b1010 "
b100100001001 *
b11111100 :
1p
#529
0p
#531
b1110 "
b110100001100 *
b11111101 :
1p
#532
0p
#533
b111000001101 *
b11111110 :
1p
#534
0p
#536
b1111 "
b111100001110 *
b11111111 :
1p
#537
0p
#538
b10000 "
b1000100010000 *
b100000000 :
1p
#539
0p
#540
b100000001 :
1p
#541
0p
#543
b1011 "
b110000001011 *
b100000010 :
1p
#544
0p
#545
b1000 "
b100000001000 *
b100000011 :
1p
#546
0p
#547
b1111 "
b111100001110 *
b100000100 :
1p
#548
0p
#550
b10001 "
b1000100010001 *
b100000101 :
1p
#551
0p
#552
b10000 "
b1000000010000 *
b100000110 :
1p
#553
0p
#555
b1101 "
b110100001100 *
b100000111 :
1p
#556
0p
#557
b1001 "
b100100001000 *
b100001000 :
1p
#558
0p
#559
b1000 "
b100000001000 *
b100001001 :
1p
#560
0p
#562
b1001 "
b100100001001 *
b100001010 :
1p
#563
0p
#564
b1011 "
b101100001011 *
b100001011 :
1p
#565
0p
#566
b1111 "
b111100001111 *
b100001100 :
1p
#567
0p
#569
b100001101 :
1p
#570
0p
#571
b1001 "
b101000001001 *
b100001110 :
1p
#572
0p
#574
b101 "
b10100000101 *
b100001111 :
1p
#575
0p
#576
b1000 "
b100100001001 *
b100010000 :
1p
#577
0p
#578
b1101 "
b1000000001111 *
b100010001 :
1p
#579
0p
#581
b1110 "
b1000100010001 *
b100010010 :
1p
#582
0p
#583
b1111 "
b1001100010011 *
b100010011 :
1p
#584
0p
#586
b1001 "
b101100001011 *
b100010100 :
1p
#587
0p
#588
b101100001010 *
b100010101 :
1p
#589
0p
#590
b1101 "
b111000001101 *
b100010110 :
1p
#591
0p
#593
b1111 "
b1000000001111 *
b100010111 :
1p
#594
0p
#595
b1001 "
b100100001001 *
b100011000 :
1p
#596
0p
#597
b1010 "
b101000001010 *
b100011001 :
1p
#598
0p
#600
b1000 "
b11100001000 *
b100011010 :
1p
#601
0p
#602
b1001 "
b11100001001 *
b100011011 :
1p
#603
0p
#605
b1101 "
b100100001101 *
b100011100 :
1p
#606
0p
#607
b10010 "
b111000010001 *
b100011101 :
1p
#608
0p
#609
b10101 "
b1000100010100 *
b100011110 :
1p
#610
0p
#612
b1010000010101 *
b100011111 :
1p
#613
0p
#614
b1110 "
b110100001111 *
b100100000 :
1p
#615
0p
#616
b10001 "
b1000000010001 *
b100100001 :
1p
#617
0p
#619
b10110 "
b1010100010111 *
b100100010 :
1p
#620
0p
#621
b10000 "
b111100010010 *
b100100011 :
1p
#622
0p
#624
b1000 "
b100000001001 *
b100100100 :
1p
#625
0p
#626
b100000001000 *
b100100101 :
1p
#627
0p
#628
b1100 "
b101100001010 *
b100100110 :
1p
#629
0p
#631
b1010 "
b100000000101 *
b100100111 :
1p
#632
0p
#633
b100000000100 *
b100101000 :
1p
#634
0p
#635
b1011 "
b100101001 :
1p
#636
0p
#638
b10001 "
b110100001011 *
b100101010 :
1p
#639
0p
#640
b1101 "
b100100001000 *
b100101011 :
1p
#641
0p
#643
b100100001001 *
b100101100 :
1p
#644
0p
#645
b1110 "
b101000001011 *
b100101101 :
1p
#646
0p
#647
b1111 "
b101100001101 *
b100101110 :
1p
#648
0p
#650
b1101 "
b100100001010 *
b100101111 :
1p
#651
0p
#652
b10000 "
b110000001100 *
b100110000 :
1p
#653
0p
#655
b1011 "
b11100001000 *
b100110001 :
1p
#656
0p
#657
b1100 "
b101000001010 *
b100110010 :
1p
#658
0p
#659
b1110 "
b111000001101 *
b100110011 :
1p
#660
0p
#662
b1111 "
b111100001111 *
b100110100 :
1p
#663
0p
#664
b10000 "
b1000000010001 *
b100110101 :
1p
#665
0p
#666
b10010 "
b1000100010011 *
b100110110 :
1p
#667
0p
#669
b10101 "
b1010000010111 *
b100110111 :
1p
#670
0p
#671
b11000 "
b1011100011011 *
b100111000 :
1p
#672
0p
#674
b10110 "
b1010100011010 *
b100111001 :
1p
#675
0p
#676
b1010100011001 *
b100111010 :
1p
#677
0p
#678
b10011 "
b1010000010101 *
b100111011 :
1p
#679
0p
#681
b1010 "
b101100001011 *
b100111100 :
1p
#682
0p
#683
b1011 "
b101100001001 *
b100111101 :
1p
#684
0p
#685
b1110 "
b111000001011 *
b100111110 :
1p
#686
0p
#688
b1000 "
b100000000100 *
b100111111 :
1p
#689
0p
#690
b111 "
b11000000100 *
b101000000 :
1p
#691
0p
#693
b1011 "
b101000001000 *
b101000001 :
1p
#694
0p
#695
b1100 "
b110000001010 *
b101000010 :
1p
#696
0p
#697
b1101 "
b110100001011 *
b101000011 :
1p
#698
0p
#700
b110100001101 *
b101000100 :
1p
#701
0p
#702
b1110 "
b111000001111 *
b101000101 :
1p
#703
0p
#705
b10001 "
b1001000010100 *
b101000110 :
1p
#706
0p
#707
b10100 "
b1100000011010 *
b101000111 :
1p
#708
0p
#709
b1111 "
b1001100010100 *
b101001000 :
1p
#710
0p
#712
b1010000010011 *
b101001001 :
1p
#713
0p
#714
b11000 "
b1110100011011 *
b101001010 :
1p
#715
0p
#716
b11101 "
b10000100011110 *
b101001011 :
1p
#717
0p
#719
b11110 "
b10000100100001 *
b101001100 :
1p
#720
0p
#721
b11100 "
b1111100100001 *
b101001101 :
1p
#722
0p
#724
b11001 "
b1101000011111 *
b101001110 :
1p
#725
0p
#726
b11000 "
b1100000011111 *
b101001111 :
1p
#727
0p
#728
b1100000011110 *
b101010000 :
1p
#729
0p
#731
b11100 "
b1110000100010 *
b101010001 :
1p
#732
0p
#733
b11110 "
b1111000100010 *
b101010010 :
1p
#734
0p
#736
b11111 "
b1111100100010 *
b101010011 :
1p
#737
0p
#738
b11101 "
b1101100100000 *
b101010100 :
1p
#739
0p
#740
b11100 "
b1100000011111 *
b101010101 :
1p
#741
0p
#743
b100011 "
b1111100100110 *
b101010110 :
1p
#744
0p
#745
b100010 "
b1111100101000 *
b101010111 :
1p
#746
0p
#747
b11110 "
b1110100100110 *
b101011000 :
1p
#748
0p
#750
b100111 "
b10011100110000 *
b101011001 :
1p
#751
0p
#752
b10100000110000 *
b101011010 :
1p
#753
0p
#755
b10100100110000 *
b101011011 :
1p
#756
0p
#757
b100101 "
b10011000101111 *
b101011100 :
1p
#758
0p
#759
b100111 "
b10100000110101 *
b101011101 :
1p
#760
0p
#762
b101001 "
b10100000111000 *
b101011110 :
1p
#763
0p
#764
b110001 "
b10111001000001 *
b101011111 :
1p
#765
0p
#766
b1000001 "
b11100101001110 *
b101100000 :
1p
#767
0p
#769
b1000100 "
b11100001010011 *
b101100001 :
1p
#770
0p
#771
b1001100 "
b100001001011001 *
b101100010 :
1p
#772
0p
#774
b1001011 "
b100100001011110 *
b101100011 :
1p
#775
0p
#776
b1000110 "
b100011001011011 *
b101100100 :
1p
#777
0p
#778
b1010111 "
b101011101101100 *
b101100101 :
1p
#779
0p
#781
b1011110 "
b101110101110000 *
b101100110 :
1p
#782
0p
#783
b1100100 "
b110000101110100 *
b101100111 :
1p
#784
0p
#786
b1101110 "
b110100101111101 *
b101101000 :
1p
#787
0p
#788
b1110101 "
b110111010000100 *
b101101001 :
1p
#789
0p
#790
b1111011 "
b111000110001010 *
b101101010 :
1p
#791
0p
#793
b10000011 "
b111011010010010 *
b101101011 :
1p
#794
0p
#795
b10011000 "
b1000011110101010 *
b101101100 :
1p
#796
0p
#797
b10011100 "
b1000101110101100 *
b101101101 :
1p
#798
0p
#800
b10100011 "
b1001001010110100 *
b101101110 :
1p
#801
0p
#802
b10100010 "
b101101111 :
1p
#803
0p
#805
b10100110 "
b1001011010111010 *
b101110000 :
1p
#806
0p
#807
b10101101 "
b1001110111000000 *
b101110001 :
1p
#808
0p
#809
b10110001 "
b1010000011000100 *
b101110010 :
1p
#810
0p
#812
b10101110 "
b1001110011000000 *
b101110011 :
1p
#813
0p
#814
b1001110011000010 *
b101110100 :
1p
#815
0p
#817
b10011101 "
b1000101010110011 *
b101110101 :
1p
#818
0p
#819
b10010100 "
b1000001010101110 *
b101110110 :
1p
#820
0p
#821
b10000111 "
b111011010100001 *
b101110111 :
1p
#822
0p
#824
b1100010 "
b101001101110111 *
b101111000 :
1p
#825
0p
#826
b1001011 "
b11111101011011 *
b101111001 :
1p
#827
0p
#828
b111010 "
b10111101000011 *
b101111010 :
1p
#829
0p
#831
b110001 "
b10100100110011 *
b101111011 :
1p
#832
0p
#833
b100000 "
b1101000100000 *
b101111100 :
1p
#834
0p
#836
b10111 "
b1010100010111 *
b101111101 :
1p
#837
0p
#838
b10101 "
b1010000010110 *
b101111110 :
1p
#839
0p
#840
b10010 "
b1001000010101 *
b101111111 :
1p
#841
0p
#843
b1011 "
b101100001100 *
b110000000 :
1p
#844
0p
#845
b1101 "
b110000001101 *
b110000001 :
1p
#846
0p
#847
b10001 "
b111000010000 *
b110000010 :
1p
#848
0p
#850
b1011 "
b11100001001 *
b110000011 :
1p
#851
0p
#852
b1101 "
b101000001100 *
b110000100 :
1p
#853
0p
#855
b10010 "
b111100010001 *
b110000101 :
1p
#856
0p
#857
b10110 "
b1001100010110 *
b110000110 :
1p
#858
0p
#859
b110000111 :
1p
#860
0p
#862
b11000 "
b1011000011000 *
b110001000 :
1p
#863
0p
#864
b10111 "
b1010100011000 *
b110001001 :
1p
#865
0p
#866
b1110 "
b110000001101 *
b110001010 :
1p
#867
0p
#869
b1101 "
b101100001011 *
b110001011 :
1p
#870
0p
#871
b10000 "
b111100001101 *
b110001100 :
1p
#872
0p
#874
b1111 "
b111100001100 *
b110001101 :
1p
#875
0p
#876
b111 "
b11100000111 *
b110001110 :
1p
#877
0p
#878
b110001111 :
1p
#879
0p
#881
b1001 "
b100000001001 *
b110010000 :
1p
#882
0p
#883
b1101 "
b101100001110 *
b110010001 :
1p
#884
0p
#885
b1100 "
b101000001101 *
b110010010 :
1p
#886
0p
#888
b1111 "
b111100010000 *
b110010011 :
1p
#889
0p
#890
b1011 "
b101100001011 *
b110010100 :
1p
#891
0p
#893
b1110 "
b111000001110 *
b110010101 :
1p
#894
0p
#895
b10011 "
b1000100010010 *
b110010110 :
1p
#896
0p
#897
b10000 "
b110100001110 *
b110010111 :
1p
#898
0p
#900
b10001 "
b111100010000 *
b110011000 :
1p
#901
0p
#902
b10101 "
b1001100010100 *
b110011001 :
1p
#903
0p
#905
b11001 "
b1011000011000 *
b110011010 :
1p
#906
0p
#907
b11011 "
b1011100011011 *
b110011011 :
1p
#908
0p
#909
b11100 "
b1101000011100 *
b110011100 :
1p
#910
0p
#912
b11111 "
b1111000100000 *
b110011101 :
1p
#913
0p
#914
b100000 "
b1111100100001 *
b110011110 :
1p
#915
0p
#916
b11110 "
b1110100100000 *
b110011111 :
1p
#917
0p
#919
b11000 "
b1011100011011 *
b110100000 :
1p
#920
0p
#921
b11010 "
b1100100011100 *
b110100001 :
1p
#922
0p
#924
b11011 "
b1101100011110 *
b110100010 :
1p
#925
0p
#926
b11001 "
b1100100011101 *
b110100011 :
1p
#927
0p
#928
b10110 "
b1011000011010 *
b110100100 :
1p
#929
0p
#931
b10111 "
b1011100011010 *
b110100101 :
1p
#932
0p
#933
b11010 "
b1101000011100 *
b110100110 :
1p
#934
0p
#936
b10011 "
b1001000010011 *
b110100111 :
1p
#937
0p
#938
b10010 "
b110101000 :
1p
#939
0p
#940
b10001 "
b1000100010011 *
b110101001 :
1p
#941
0p
#943
b1111 "
b111000010011 *
b110101010 :
1p
#944
0p
#945
b1011 "
b101100010000 *
b110101011 :
1p
#946
0p
#947
b1111 "
b1000000010100 *
b110101100 :
1p
#948
0p
#950
b10001 "
b1001100010111 *
b110101101 :
1p
#951
0p
#952
b11000 "
b1100100011110 *
b110101110 :
1p
#953
0p
#955
b10111 "
b1011100011101 *
b110101111 :
1p
#956
0p
#957
b11001 "
b1100000011101 *
b110110000 :
1p
#958
0p
#959
b11111 "
b1110100100001 *
b110110001 :
1p
#960
0p
#962
b100001 "
b1111100100011 *
b110110010 :
1p
#963
0p
#964
b100000 "
b1110100100000 *
b110110011 :
1p
#965
0p
#966
b11011 "
b1011100011011 *
b110110100 :
1p
#967
0p
#969
b11001 "
b1011000011001 *
b110110101 :
1p
#970
0p
#971
b11010 "
b1100000011010 *
b110110110 :
1p
#972
0p
#974
b11101 "
b1110000011101 *
b110110111 :
1p
#975
0p
#976
b1111 "
b111000001111 *
b110111000 :
1p
#977
0p
#978
b10000 "
b111100010000 *
b110111001 :
1p
#979
0p
#981
b10100 "
b1001100010100 *
b110111010 :
1p
#982
0p
#983
b100001 "
b1111000100000 *
b110111011 :
1p
#984
0p
#985
b11110 "
b1100100011100 *
b110111100 :
1p
#986
0p
#988
b11001 "
b1001100010111 *
b110111101 :
1p
#989
0p
#990
b11011 "
b1001000011001 *
b110111110 :
1p
#991
0p
#993
b100010 "
b1101000100000 *
b110111111 :
1p
#994
0p
#995
b101110 "
b10011100101010 *
b111000000 :
1p
#996
0p
#997
b110110 "
b11001000110000 *
b111000001 :
1p
#998
0p
#1000
b110101 "
b11000100101001 *
b111000010 :
1p
#1001
0p
#1002
b111010 "
b11011000101001 *
b111000011 :
1p
#1003
0p
#1005
b1001011 "
b100011100111100 *
b111000100 :
1p
#1006
0p
#1007
b1010001 "
b100110001000011 *
b111000101 :
1p
#1008
0p
#1009
b1010110 "
b100111101001101 *
b111000110 :
1p
#1010
0p
#1012
b1110010 "
b110011001101101 *
b111000111 :
1p
#1013
0p
#1014
b1111011 "
b111000001110111 *
b111001000 :
1p
#1015
0p
#1016
b1111100 "
b111001001111001 *
b111001001 :
1p
#1017
0p
#1019
b1111011 "
b111010001111010 *
b111001010 :
1p
#1020
0p
#1021
b10000010 "
b111110010000010 *
b111001011 :
1p
#1022
0p
#1024
b10000011 "
b111111010000011 *
b111001100 :
1p
#1025
0p
#1026
b10001000 "
b1000001110001000 *
b111001101 :
1p
#1027
0p
#1028
b10001101 "
b1000100110001110 *
b111001110 :
1p
#1029
0p
